{
	"info": {
		"_postman_id": "bfbc6d4d-93a4-4ff6-82c1-66596c0a060a",
		"name": "person",
		"schema": "https://schema.getpostman.com/json/collection/v2.1.0/collection.json"
	},
	"item": [
		{
			"name": "person get all",
			"request": {
				"method": "GET",
				"header": [],
				"url": {
					"raw": "http://localhost:8085/api/v1/person",
					"protocol": "http",
					"host": [
						"localhost"
					],
					"port": "8085",
					"path": [
						"api",
						"v1",
						"person"
					]
				}
			},
			"response": []
		},
		{
			"name": "save person",
			"request": {
				"method": "POST",
				"header": [],
				"body": {
					"mode": "raw",
					"raw": "{\r\n        \"id\": 1,\r\n        \"fullname\": \"David\",\r\n        \"birth\": \"1996-08-06T05:00:00.000+0000\",\r\n        \"idfather\": 0,\r\n        \"idmather\": 0,\r\n        \"idchild\": 0\r\n    }",
					"options": {
						"raw": {
							"language": "json"
						}
					}
				},
				"url": {
					"raw": "http://localhost:8085/api/v1/person/save",
					"protocol": "http",
					"host": [
						"localhost"
					],
					"port": "8085",
					"path": [
						"api",
						"v1",
						"person",
						"save"
					]
				}
			},
			"response": []
		}
	],
	"protocolProfileBehavior": {}
}